[gd_scene load_steps=10 format=2]

[ext_resource path="res://VignetteImages/People/Person_Large_T/person_large_t_0000.png" type="Texture" id=1]
[ext_resource path="res://VignetteImages/People/Person_Large_T/person_large_t_0002.png" type="Texture" id=2]
[ext_resource path="res://VignetteImages/People/Person_Large_T/person_large_t_0003.png" type="Texture" id=3]
[ext_resource path="res://VignetteImages/People/Person_Large_T/person_large_t_0001.png" type="Texture" id=4]
[ext_resource path="res://VignetteImages/People/Person_Large_T/person_large_t_0004.png" type="Texture" id=5]
[ext_resource path="res://VignetteImages/Animations/enter_bottom_slow.tres" type="Animation" id=6]
[ext_resource path="res://VignetteImages/Animations/fade_in_slow.tres" type="Animation" id=10]
[ext_resource path="res://vignette_element.gd" type="Script" id=11]

[sub_resource type="SpriteFrames" id=1]
animations = [ {
"frames": [ ExtResource( 1 ), ExtResource( 4 ), ExtResource( 2 ), ExtResource( 3 ), ExtResource( 5 ) ],
"loop": true,
"name": "default",
"speed": 5.0
} ]

[node name="person_large_t" type="AnimatedSprite"]
modulate = Color( 0, 0, 0, 1 )
frames = SubResource( 1 )
frame = 2
playing = true
script = ExtResource( 11 )

[node name="AnimationPlayer" type="AnimationPlayer" parent="."]
autoplay = "enter_bottom_slow"
anims/enter_bottom_slow = ExtResource( 6 )
anims/fade_in_slow = ExtResource( 10 )
