[gd_scene load_steps=4 format=2]

[ext_resource path="res://vignette_element.gd" type="Script" id=1]
[ext_resource path="res://VignetteImages/Vignette_D/vignette_d_table_chair.png" type="Texture" id=2]
[ext_resource path="res://VignetteImages/Animations/fade_in.tres" type="Animation" id=3]

[node name="vignette_d_table_chair" type="Sprite"]
self_modulate = Color( 1, 1, 1, 0.86 )
texture = ExtResource( 2 )
script = ExtResource( 1 )
z_position = 2

[node name="AnimationPlayer" type="AnimationPlayer" parent="."]
autoplay = "fade_in"
anims/fade_in = ExtResource( 3 )
