[gd_scene load_steps=4 format=2]

[ext_resource path="res://vignette_element.gd" type="Script" id=1]
[ext_resource path="res://VignetteImages/Vignette_D/vignette_d_building.png" type="Texture" id=2]
[ext_resource path="res://VignetteImages/Animations/enter_right_slow.tres" type="Animation" id=3]

[node name="vignette_d_building" type="Sprite"]
position = Vector2( 2048, 0 )
texture = ExtResource( 2 )
script = ExtResource( 1 )
z_position = 2

[node name="AnimationPlayer" type="AnimationPlayer" parent="."]
autoplay = "enter_right_slow"
anims/enter_right_slow = ExtResource( 3 )
