[gd_scene load_steps=5 format=2]

[ext_resource path="res://vignette_element.gd" type="Script" id=1]
[ext_resource path="res://VignetteImages/Vignette_D/vignette_d_trees.png" type="Texture" id=2]
[ext_resource path="res://VignetteImages/Animations/fade_in.tres" type="Animation" id=3]
[ext_resource path="res://VignetteImages/Animations/fade_in_slow.tres" type="Animation" id=4]

[node name="vignette_d_trees" type="Sprite"]
self_modulate = Color( 1, 1, 1, 0.94 )
position = Vector2( -36.2851, 23.88 )
scale = Vector2( 0.959355, 0.963552 )
texture = ExtResource( 2 )
script = ExtResource( 1 )
z_position = -4

[node name="AnimationPlayer" type="AnimationPlayer" parent="."]
autoplay = "fade_in_custom"
anims/fade_in_custom = ExtResource( 3 )
anims/fade_in_slow = ExtResource( 4 )
