[gd_scene load_steps=5 format=2]

[ext_resource path="res://VignetteImages/Vignette_M/vignette_m_ground.png" type="Texture" id=1]
[ext_resource path="res://vignette_element.gd" type="Script" id=2]
[ext_resource path="res://VignetteImages/Animations/enter_bottom_slow.tres" type="Animation" id=3]
[ext_resource path="res://VignetteImages/Animations/fade_in.tres" type="Animation" id=4]

[node name="vignette_m_ground" type="Sprite" groups=["vignette_elements"]]
self_modulate = Color( 1, 1, 1, 0 )
texture = ExtResource( 1 )
script = ExtResource( 2 )

[node name="AnimationPlayer" type="AnimationPlayer" parent="."]
autoplay = "fade_in"
anims/enter_bottom_slow = ExtResource( 3 )
anims/fade_in = ExtResource( 4 )
