[gd_scene load_steps=4 format=2]

[ext_resource path="res://VignetteImages/Vignette_A/vignette_a_grass.png" type="Texture" id=1]
[ext_resource path="res://vignette_element.gd" type="Script" id=2]
[ext_resource path="res://VignetteImages/Animations/enter_bottom.tres" type="Animation" id=3]

[node name="vignette_a_grass" type="Sprite"]
position = Vector2( 0, 1024 )
texture = ExtResource( 1 )
script = ExtResource( 2 )
z_position = -2

[node name="AnimationPlayer" type="AnimationPlayer" parent="."]
autoplay = "enter_bottom"
anims/enter_bottom = ExtResource( 3 )
