[gd_scene load_steps=4 format=2]

[ext_resource path="res://VignetteImages/Vignette_A/vignette_a_bush.png" type="Texture" id=1]
[ext_resource path="res://vignette_element.gd" type="Script" id=2]
[ext_resource path="res://VignetteImages/Animations/enter_right.tres" type="Animation" id=3]

[node name="vignette_a_bush" type="Sprite"]
texture = ExtResource( 1 )
script = ExtResource( 2 )
z_position = 4

[node name="AnimationPlayer" type="AnimationPlayer" parent="."]
autoplay = "enter_right"
anims/enter_right = ExtResource( 3 )
