[gd_scene load_steps=4 format=2]

[ext_resource path="res://vignette_element.gd" type="Script" id=1]
[ext_resource path="res://VignetteImages/Vignette_A/vignette_a_house.png" type="Texture" id=2]
[ext_resource path="res://VignetteImages/Animations/scale_up.tres" type="Animation" id=3]

[node name="vignette_a_house" type="Sprite"]
texture = ExtResource( 2 )
script = ExtResource( 1 )
z_position = -3

[node name="AnimationPlayer" type="AnimationPlayer" parent="."]
autoplay = "scale_up"
anims/scale_up = ExtResource( 3 )
