[gd_scene load_steps=5 format=2]

[ext_resource path="res://vignette_element.gd" type="Script" id=1]
[ext_resource path="res://VignetteImages/Vignette_F/vignette_f_trees.png" type="Texture" id=2]
[ext_resource path="res://VignetteImages/Animations/fade_in_slow.tres" type="Animation" id=3]
[ext_resource path="res://VignetteImages/Animations/fade_in_slow_and_scale_up_from_bottom_left.tres" type="Animation" id=4]

[node name="vignette_f_trees" type="Sprite"]
self_modulate = Color( 1, 1, 1, 0 )
texture = ExtResource( 2 )
script = ExtResource( 1 )
z_position = 2

[node name="AnimationPlayer" type="AnimationPlayer" parent="."]
autoplay = "fade_in_slow"
anims/fade_in_slow = ExtResource( 3 )
anims/fade_in_slow_and_scale_up_from_bottom_left = ExtResource( 4 )
