[gd_scene load_steps=5 format=2]

[ext_resource path="res://VignetteImages/Past/past_b.png" type="Texture" id=1]
[ext_resource path="res://vignette_element.gd" type="Script" id=2]
[ext_resource path="res://VignetteImages/Animations/enter_left.tres" type="Animation" id=3]
[ext_resource path="res://VignetteImages/Animations/scale_up_slow.tres" type="Animation" id=4]

[node name="past_b" type="Sprite"]
self_modulate = Color( 0, 0, 0, 1 )
scale = Vector2( 0.580004, 0.580004 )
texture = ExtResource( 1 )
script = ExtResource( 2 )

[node name="AnimationPlayer" type="AnimationPlayer" parent="."]
autoplay = "scale_up_slow"
anims/enter_left = ExtResource( 3 )
anims/scale_up_slow = ExtResource( 4 )
