[gd_scene load_steps=6 format=2]

[ext_resource path="res://VignetteImages/Past/past_bellflower.png" type="Texture" id=1]
[ext_resource path="res://vignette_element.gd" type="Script" id=2]
[ext_resource path="res://VignetteImages/Animations/enter_left.tres" type="Animation" id=3]
[ext_resource path="res://VignetteImages/Animations/scale_up_slow.tres" type="Animation" id=4]
[ext_resource path="res://VignetteImages/Animations/scale_up.tres" type="Animation" id=5]

[node name="past_bellflower" type="Sprite"]
self_modulate = Color( 0, 0, 0, 1 )
position = Vector2( -187, 515 )
scale = Vector2( 1e-05, 1e-05 )
texture = ExtResource( 1 )
offset = Vector2( 187, -515 )
script = ExtResource( 2 )

[node name="AnimationPlayer" type="AnimationPlayer" parent="."]
autoplay = "scale_up"
anims/enter_left = ExtResource( 3 )
anims/scale_up = ExtResource( 5 )
anims/scale_up_slow = ExtResource( 4 )
