[gd_scene load_steps=7 format=2]

[ext_resource path="res://VignetteImages/Past/past_d_curlew.png" type="Texture" id=1]
[ext_resource path="res://vignette_element.gd" type="Script" id=2]
[ext_resource path="res://VignetteImages/Animations/enter_left.tres" type="Animation" id=3]
[ext_resource path="res://VignetteImages/Animations/scale_up_slow.tres" type="Animation" id=4]
[ext_resource path="res://VignetteImages/Animations/fade_in (not self-modulate).tres" type="Animation" id=5]
[ext_resource path="res://VignetteImages/Animations/enter_bottom_slow.tres" type="Animation" id=6]

[node name="past_d_curlew" type="Sprite"]
self_modulate = Color( 0, 0, 0, 0.596078 )
position = Vector2( 0, 1024 )
texture = ExtResource( 1 )
script = ExtResource( 2 )

[node name="AnimationPlayer" type="AnimationPlayer" parent="."]
autoplay = "enter_bottom_slow"
anims/enter_bottom_slow = ExtResource( 6 )
anims/enter_left = ExtResource( 3 )
"anims/fade_in (not self-modulate)" = ExtResource( 5 )
anims/scale_up_slow = ExtResource( 4 )
