[gd_scene load_steps=4 format=2]

[ext_resource path="res://VignetteImages/Animations/enter_left_slow.tres" type="Animation" id=1]
[ext_resource path="res://vignette_element.gd" type="Script" id=2]
[ext_resource path="res://VignetteImages/Past/past_galipea.png" type="Texture" id=3]

[node name="past_galipea" type="Sprite"]
self_modulate = Color( 0, 0, 0, 1 )
position = Vector2( -2048, 0 )
texture = ExtResource( 3 )
script = ExtResource( 2 )

[node name="AnimationPlayer" type="AnimationPlayer" parent="."]
autoplay = "enter_left_slow"
anims/enter_left_slow = ExtResource( 1 )
