[gd_scene load_steps=6 format=2]

[ext_resource path="res://VignetteImages/Past/past_c.png" type="Texture" id=1]
[ext_resource path="res://vignette_element.gd" type="Script" id=2]
[ext_resource path="res://VignetteImages/Animations/enter_left.tres" type="Animation" id=3]
[ext_resource path="res://VignetteImages/Animations/scale_up_slow.tres" type="Animation" id=4]
[ext_resource path="res://VignetteImages/Animations/fade_in (not self-modulate).tres" type="Animation" id=5]

[node name="past_c" type="Sprite"]
self_modulate = Color( 0, 0, 0, 0.596078 )
texture = ExtResource( 1 )
script = ExtResource( 2 )

[node name="AnimationPlayer" type="AnimationPlayer" parent="."]
autoplay = "fade_in (not self-modulate)"
anims/enter_left = ExtResource( 3 )
"anims/fade_in (not self-modulate)" = ExtResource( 5 )
anims/scale_up_slow = ExtResource( 4 )
