[gd_scene load_steps=5 format=2]

[ext_resource path="res://VignetteImages/Shapes/foreground_shape_i.png" type="Texture" id=1]
[ext_resource path="res://VignetteImages/Animations/enter_bottom_right.tres" type="Animation" id=2]
[ext_resource path="res://VignetteImages/Animations/zoom_out_minimal.tres" type="Animation" id=3]
[ext_resource path="res://vignette_element.gd" type="Script" id=4]

[node name="foreground_shape_i" type="Sprite"]
texture = ExtResource( 1 )
script = ExtResource( 4 )

[node name="AnimationPlayer" type="AnimationPlayer" parent="."]
autoplay = "enter_bottom_right_modified"
anims/enter_bottom_right_modified = ExtResource( 2 )
anims/zoom_out_minimal = ExtResource( 3 )
