[gd_scene load_steps=4 format=2]

[ext_resource path="res://vignette_element.gd" type="Script" id=1]
[ext_resource path="res://VignetteImages/Animations/enter_bottom_slow.tres" type="Animation" id=2]
[ext_resource path="res://VignetteImages/Shapes/foreground_shape_l.png" type="Texture" id=3]

[node name="foreground_shape_l" type="Sprite"]
texture = ExtResource( 3 )
script = ExtResource( 1 )

[node name="AnimationPlayer" type="AnimationPlayer" parent="."]
autoplay = "enter_bottom_slow"
anims/enter_bottom_slow = ExtResource( 2 )
