[gd_scene load_steps=4 format=2]

[ext_resource path="res://vignette_element.gd" type="Script" id=1]
[ext_resource path="res://VignetteImages/Shapes/form_a.png" type="Texture" id=2]
[ext_resource path="res://VignetteImages/Animations/enter_bottom_slow.tres" type="Animation" id=3]

[node name="form_a" type="Sprite"]
position = Vector2( 0, 1024 )
texture = ExtResource( 2 )
script = ExtResource( 1 )

[node name="AnimationPlayer" type="AnimationPlayer" parent="."]
autoplay = "enter_bottom_slow"
anims/enter_bottom_slow = ExtResource( 3 )
