[gd_scene load_steps=4 format=2]

[ext_resource path="res://vignette_element.gd" type="Script" id=1]
[ext_resource path="res://VignetteImages/People/person_large_m.png" type="Texture" id=2]
[ext_resource path="res://VignetteImages/Animations/fade_in_slow.tres" type="Animation" id=3]

[node name="person_large_m" type="Sprite"]
self_modulate = Color( 1, 1, 1, 0.76 )
texture = ExtResource( 2 )
script = ExtResource( 1 )

[node name="AnimationPlayer" type="AnimationPlayer" parent="."]
autoplay = "fade_in_slow"
anims/fade_in_slow = ExtResource( 3 )
