[gd_scene load_steps=5 format=2]

[ext_resource path="res://vignette_element.gd" type="Script" id=1]
[ext_resource path="res://VignetteImages/Animations/fade_in_slow.tres" type="Animation" id=2]
[ext_resource path="res://VignetteImages/People/person_small_l.png" type="Texture" id=3]
[ext_resource path="res://VignetteImages/Animations/scale_up.tres" type="Animation" id=5]

[node name="person_small_l" type="Sprite" groups=["vignette_elements"]]
self_modulate = Color( 1, 1, 1, 0 )
texture = ExtResource( 3 )
script = ExtResource( 1 )

[node name="AnimationPlayer" type="AnimationPlayer" parent="."]
autoplay = "fade_in_slow"
anims/fade_in_slow = ExtResource( 2 )
anims/scale_up = ExtResource( 5 )
