[gd_scene load_steps=7 format=2]

[ext_resource path="res://vignette_element.gd" type="Script" id=1]
[ext_resource path="res://VignetteImages/People/person_large_c_1.png" type="Texture" id=2]
[ext_resource path="res://VignetteImages/People/person_large_c_3.png" type="Texture" id=3]
[ext_resource path="res://VignetteImages/People/person_large_c_2.png" type="Texture" id=4]
[ext_resource path="res://VignetteImages/Animations/fade_in.tres" type="Animation" id=5]

[sub_resource type="SpriteFrames" id=1]
animations = [ {
"frames": [ ExtResource( 2 ), ExtResource( 4 ), ExtResource( 3 ) ],
"loop": true,
"name": "person_large_c",
"speed": 0.1
} ]

[node name="person_large_c" type="AnimatedSprite" groups=[
"vignette_elements",
]]
self_modulate = Color( 1, 1, 1, 0 )
frames = SubResource( 1 )
animation = "person_large_c"
frame = 1
playing = true
script = ExtResource( 1 )
z_position = 3

[node name="AnimationPlayer" type="AnimationPlayer" parent="."]
autoplay = "fade_in"
anims/fade_in = ExtResource( 5 )
