[gd_scene load_steps=4 format=2]

[ext_resource path="res://VignetteImages/Animations/scale_up_slow.tres" type="Animation" id=1]
[ext_resource path="res://vignette_element.gd" type="Script" id=2]
[ext_resource path="res://VignetteImages/People/person_small_e.png" type="Texture" id=3]

[node name="person_small_e" type="Sprite" groups=[
"vignette_elements",
]]
scale = Vector2( 1e-05, 1e-05 )
texture = ExtResource( 3 )
script = ExtResource( 2 )

[node name="AnimationPlayer" type="AnimationPlayer" parent="."]
autoplay = "scale_up_slow"
anims/scale_up_slow = ExtResource( 1 )
