[gd_scene load_steps=5 format=2]

[ext_resource path="res://vignette_element.gd" type="Script" id=1]
[ext_resource path="res://VignetteImages/Animations/fade_in_slow.tres" type="Animation" id=2]
[ext_resource path="res://VignetteImages/People/person_small_m.png" type="Texture" id=3]
[ext_resource path="res://VignetteImages/Animations/scale_up.tres" type="Animation" id=5]

[node name="person_small_m" type="Sprite" groups=["vignette_elements"]]
position = Vector2( -246, 508 )
scale = Vector2( 1e-05, 1e-05 )
texture = ExtResource( 3 )
offset = Vector2( 246, -508 )
script = ExtResource( 1 )

[node name="AnimationPlayer" type="AnimationPlayer" parent="."]
autoplay = "scale_up"
anims/fade_in_slow = ExtResource( 2 )
anims/scale_up = ExtResource( 5 )
