[gd_scene load_steps=5 format=2]

[ext_resource path="res://VignetteImages/Animations/enter_left.tres" type="Animation" id=1]
[ext_resource path="res://vignette_element.gd" type="Script" id=2]
[ext_resource path="res://VignetteImages/Animations/fade_in_slow.tres" type="Animation" id=3]
[ext_resource path="res://VignetteImages/People/person_large_r.png" type="Texture" id=4]

[node name="person_large_r" type="Sprite"]
position = Vector2( -2048, 0 )
texture = ExtResource( 4 )
script = ExtResource( 2 )

[node name="AnimationPlayer" type="AnimationPlayer" parent="."]
autoplay = "enter_left"
anims/enter_left = ExtResource( 1 )
anims/fade_in_slow = ExtResource( 3 )
