[gd_scene load_steps=4 format=2]

[ext_resource path="res://vignette_element.gd" type="Script" id=1]
[ext_resource path="res://VignetteImages/Vignette_B/vignette_b_house.png" type="Texture" id=2]
[ext_resource path="res://VignetteImages/Animations/enter_left.tres" type="Animation" id=3]

[node name="vignette_b_house" type="Sprite"]
position = Vector2( -2048, 0 )
texture = ExtResource( 2 )
script = ExtResource( 1 )

[node name="AnimationPlayer" type="AnimationPlayer" parent="."]
autoplay = "enter_left"
anims/enter_left = ExtResource( 3 )
